Dplyr tutorial
…
To quote or not to quote

Thankfully when printing or glimpsing
(covered later) a tibble it will show which columns
need quotes.

Notice the `Shucked Weight`,
`Viscera Weight`, and `Shell Weight` column
names with their back ticks in the below code output. They will need
bacticking/quoting in tidyverse functions.

crab_age_pred_tbl |> print()

## # A tibble: 3,893 × 9
##    Sex   Length Diameter Height Weight `Shucked Weight` `Viscera Weight`
##    <fct>  <dbl>    <dbl>  <dbl>  <dbl>            <dbl>            <dbl>
##  1 F      1.44     1.18   0.412  24.6             12.3              5.58
##  2 M      0.888    0.65   0.212   5.40             2.30             1.37
##  3 I      1.04     0.775  0.25    7.95             3.23             1.60
##  4 F      1.18     0.888  0.25   13.5              4.75             2.28
##  5 I      0.888    0.662  0.212   6.90             3.46             1.49
##  6 F      1.55     1.16   0.35   28.7             13.6              6.76
##  7 F      1.3      1      0.325  17.7              6.10             5.85
##  8 M      1.32     1.01   0.375  23.6              9.98             5.30
##  9 I      1.59     1.25   0.412  42.2             20.3              9.77
## 10 I      0.912    0.688  0.338   6.80             3.06             1.26
## # ℹ 3,883 more rows
## # ℹ 2 more variables: `Shell Weight` <dbl>, Age <dbl>
…
